# Copyright 2015 Nicolas Melot
#
# This file is part of Drake-merge.
#
# Drake-merge is free software: you can redistribute it and/or modify
# it under the terms of the GNU General Public License as published by
# the Free Software Foundation, either version 3 of the License, or
# (at your option) any later version.
#
# Drake-merge is distributed in the hope that it will be useful,
# but WITHOUT ANY WARRANTY; without even the implied warranty of
# MERCHANTABILITY or FITNESS FOR A PARTICULAR PURPOSE. See the
# GNU General Public License for more details.
#
# You should have received a copy of the GNU General Public License
# along with Drake-merge. If not, see <http://www.gnu.org/licenses/>.
#


# Number of cores
param p := 2;

# Frequency levels
set F := 2667000 2666000 2533000 2399000 2266000 2133000 1999000 1866000 1733000 1599000 1466000 1333000 1199000;

param Funit := 1000;

param Fin := 1;
set Fi[1] := 1 2;

param Sin := 1;
set Si[1] = 1 2;
