<?xml version="1.0" encoding="UTF-8"?>
<graphml xmlns="http://graphml.graphdrawing.org/xmlns"
         xmlns:xsi="http://www.w3.org/2001/XMLSchema-instance"
         xsi:schemaLocation="http://graphml.graphdrawing.org/xmlns
         http://graphml.graphdrawing.org/xmlns/1.0/graphml.xsd">
<!-- Created by igraph -->
  <key id="g_name" for="graph" attr.name="name" attr.type="string"/>
  <key id="g_deadline" for="graph" attr.name="deadline" attr.type="string"/>
  <key id="v_name" for="node" attr.name="name" attr.type="string"/>
  <key id="v_module" for="node" attr.name="module" attr.type="string"/>
  <key id="v_workload" for="node" attr.name="workload" attr.type="double"/>
  <key id="v_efficiency" for="node" attr.name="efficiency" attr.type="string"/>
  <key id="v_max_width" for="node" attr.name="max_width" attr.type="string"/>
  <key id="e_producer_name" for="edge" attr.name="producer_name" attr.type="string"/>
  <key id="e_consumer_name" for="edge" attr.name="consumer_name" attr.type="string"/>
  <key id="e_type" for="edge" attr.name="type" attr.type="string"/>
  <key id="e_consume" for="edge" attr.name="consume" attr.type="double"/>
  <key id="e_produce" for="edge" attr.name="produce" attr.type="double"/>
  <graph id="G" edgedefault="directed">
    <data key="g_name">pipelined_merge</data>
    <data key="g_deadline">0</data>
    <node id="n0">
      <data key="v_name">leaf_1</data>
      <data key="v_module">presort</data>
      <data key="v_workload">1</data>
      <data key="v_efficiency">exprtk: p == 1 ? 1 : p &lt;= W ? 1 - 0.3 * ((p * p) / (W * W)) : 1e-06</data>
      <data key="v_max_width">1</data>
    </node>
    <node id="n1">
      <data key="v_name">leaf_2</data>
      <data key="v_module">presort</data>
      <data key="v_workload">1</data>
      <data key="v_efficiency">exprtk: p == 1 ? 1 : p &lt;= W ? 1 - 0.3 * ((p * p) / (W * W)) : 1e-06</data>
      <data key="v_max_width">1</data>
    </node>
    <node id="n2">
      <data key="v_name">leaf_3</data>
      <data key="v_module">presort</data>
      <data key="v_workload">1</data>
      <data key="v_efficiency">exprtk: p == 1 ? 1 : p &lt;= W ? 1 - 0.3 * ((p * p) / (W * W)) : 1e-06</data>
      <data key="v_max_width">1</data>
    </node>
    <node id="n3">
      <data key="v_name">leaf_4</data>
      <data key="v_module">presort</data>
      <data key="v_workload">1</data>
      <data key="v_efficiency">exprtk: p == 1 ? 1 : p &lt;= W ? 1 - 0.3 * ((p * p) / (W * W)) : 1e-06</data>
      <data key="v_max_width">1</data>
    </node>
    <node id="n4">
      <data key="v_name">leaf_5</data>
      <data key="v_module">presort</data>
      <data key="v_workload">1</data>
      <data key="v_efficiency">exprtk: p == 1 ? 1 : p &lt;= W ? 1 - 0.3 * ((p * p) / (W * W)) : 1e-06</data>
      <data key="v_max_width">1</data>
    </node>
    <node id="n5">
      <data key="v_name">leaf_6</data>
      <data key="v_module">presort</data>
      <data key="v_workload">1</data>
      <data key="v_efficiency">exprtk: p == 1 ? 1 : p &lt;= W ? 1 - 0.3 * ((p * p) / (W * W)) : 1e-06</data>
      <data key="v_max_width">1</data>
    </node>
    <node id="n6">
      <data key="v_name">leaf_7</data>
      <data key="v_module">presort</data>
      <data key="v_workload">1</data>
      <data key="v_efficiency">exprtk: p == 1 ? 1 : p &lt;= W ? 1 - 0.3 * ((p * p) / (W * W)) : 1e-06</data>
      <data key="v_max_width">1</data>
    </node>
    <node id="n7">
      <data key="v_name">leaf_8</data>
      <data key="v_module">presort</data>
      <data key="v_workload">1</data>
      <data key="v_efficiency">exprtk: p == 1 ? 1 : p &lt;= W ? 1 - 0.3 * ((p * p) / (W * W)) : 1e-06</data>
      <data key="v_max_width">1</data>
    </node>
    <node id="n8">
      <data key="v_name">leaf_9</data>
      <data key="v_module">presort</data>
      <data key="v_workload">1</data>
      <data key="v_efficiency">exprtk: p == 1 ? 1 : p &lt;= W ? 1 - 0.3 * ((p * p) / (W * W)) : 1e-06</data>
      <data key="v_max_width">1</data>
    </node>
    <node id="n9">
      <data key="v_name">leaf_10</data>
      <data key="v_module">presort</data>
      <data key="v_workload">1</data>
      <data key="v_efficiency">exprtk: p == 1 ? 1 : p &lt;= W ? 1 - 0.3 * ((p * p) / (W * W)) : 1e-06</data>
      <data key="v_max_width">1</data>
    </node>
    <node id="n10">
      <data key="v_name">leaf_11</data>
      <data key="v_module">presort</data>
      <data key="v_workload">1</data>
      <data key="v_efficiency">exprtk: p == 1 ? 1 : p &lt;= W ? 1 - 0.3 * ((p * p) / (W * W)) : 1e-06</data>
      <data key="v_max_width">1</data>
    </node>
    <node id="n11">
      <data key="v_name">leaf_12</data>
      <data key="v_module">presort</data>
      <data key="v_workload">1</data>
      <data key="v_efficiency">exprtk: p == 1 ? 1 : p &lt;= W ? 1 - 0.3 * ((p * p) / (W * W)) : 1e-06</data>
      <data key="v_max_width">1</data>
    </node>
    <node id="n12">
      <data key="v_name">leaf_13</data>
      <data key="v_module">presort</data>
      <data key="v_workload">1</data>
      <data key="v_efficiency">exprtk: p == 1 ? 1 : p &lt;= W ? 1 - 0.3 * ((p * p) / (W * W)) : 1e-06</data>
      <data key="v_max_width">1</data>
    </node>
    <node id="n13">
      <data key="v_name">leaf_14</data>
      <data key="v_module">presort</data>
      <data key="v_workload">1</data>
      <data key="v_efficiency">exprtk: p == 1 ? 1 : p &lt;= W ? 1 - 0.3 * ((p * p) / (W * W)) : 1e-06</data>
      <data key="v_max_width">1</data>
    </node>
    <node id="n14">
      <data key="v_name">leaf_15</data>
      <data key="v_module">presort</data>
      <data key="v_workload">1</data>
      <data key="v_efficiency">exprtk: p == 1 ? 1 : p &lt;= W ? 1 - 0.3 * ((p * p) / (W * W)) : 1e-06</data>
      <data key="v_max_width">1</data>
    </node>
    <node id="n15">
      <data key="v_name">leaf_16</data>
      <data key="v_module">presort</data>
      <data key="v_workload">1</data>
      <data key="v_efficiency">exprtk: p == 1 ? 1 : p &lt;= W ? 1 - 0.3 * ((p * p) / (W * W)) : 1e-06</data>
      <data key="v_max_width">1</data>
    </node>
    <node id="n16">
      <data key="v_name">merge_2</data>
      <data key="v_module">merge</data>
      <data key="v_workload">8</data>
      <data key="v_efficiency">exprtk: p == 1 ? 1 : p &lt;= W ? 1 - 0.3 * ((p * p) / (W * W)) : 1e-06</data>
      <data key="v_max_width">1</data>
    </node>
    <node id="n17">
      <data key="v_name">merge_3</data>
      <data key="v_module">merge</data>
      <data key="v_workload">8</data>
      <data key="v_efficiency">exprtk: p == 1 ? 1 : p &lt;= W ? 1 - 0.3 * ((p * p) / (W * W)) : 1e-06</data>
      <data key="v_max_width">1</data>
    </node>
    <node id="n18">
      <data key="v_name">merge_4</data>
      <data key="v_module">merge</data>
      <data key="v_workload">4</data>
      <data key="v_efficiency">exprtk: p == 1 ? 1 : p &lt;= W ? 1 - 0.3 * ((p * p) / (W * W)) : 1e-06</data>
      <data key="v_max_width">1</data>
    </node>
    <node id="n19">
      <data key="v_name">merge_5</data>
      <data key="v_module">merge</data>
      <data key="v_workload">4</data>
      <data key="v_efficiency">exprtk: p == 1 ? 1 : p &lt;= W ? 1 - 0.3 * ((p * p) / (W * W)) : 1e-06</data>
      <data key="v_max_width">1</data>
    </node>
    <node id="n20">
      <data key="v_name">merge_6</data>
      <data key="v_module">merge</data>
      <data key="v_workload">4</data>
      <data key="v_efficiency">exprtk: p == 1 ? 1 : p &lt;= W ? 1 - 0.3 * ((p * p) / (W * W)) : 1e-06</data>
      <data key="v_max_width">1</data>
    </node>
    <node id="n21">
      <data key="v_name">merge_7</data>
      <data key="v_module">merge</data>
      <data key="v_workload">4</data>
      <data key="v_efficiency">exprtk: p == 1 ? 1 : p &lt;= W ? 1 - 0.3 * ((p * p) / (W * W)) : 1e-06</data>
      <data key="v_max_width">1</data>
    </node>
    <node id="n22">
      <data key="v_name">merge_8</data>
      <data key="v_module">merge</data>
      <data key="v_workload">2</data>
      <data key="v_efficiency">exprtk: p == 1 ? 1 : p &lt;= W ? 1 - 0.3 * ((p * p) / (W * W)) : 1e-06</data>
      <data key="v_max_width">1</data>
    </node>
    <node id="n23">
      <data key="v_name">merge_9</data>
      <data key="v_module">merge</data>
      <data key="v_workload">2</data>
      <data key="v_efficiency">exprtk: p == 1 ? 1 : p &lt;= W ? 1 - 0.3 * ((p * p) / (W * W)) : 1e-06</data>
      <data key="v_max_width">1</data>
    </node>
    <node id="n24">
      <data key="v_name">merge_10</data>
      <data key="v_module">merge</data>
      <data key="v_workload">2</data>
      <data key="v_efficiency">exprtk: p == 1 ? 1 : p &lt;= W ? 1 - 0.3 * ((p * p) / (W * W)) : 1e-06</data>
      <data key="v_max_width">1</data>
    </node>
    <node id="n25">
      <data key="v_name">merge_11</data>
      <data key="v_module">merge</data>
      <data key="v_workload">2</data>
      <data key="v_efficiency">exprtk: p == 1 ? 1 : p &lt;= W ? 1 - 0.3 * ((p * p) / (W * W)) : 1e-06</data>
      <data key="v_max_width">1</data>
    </node>
    <node id="n26">
      <data key="v_name">merge_12</data>
      <data key="v_module">merge</data>
      <data key="v_workload">2</data>
      <data key="v_efficiency">exprtk: p == 1 ? 1 : p &lt;= W ? 1 - 0.3 * ((p * p) / (W * W)) : 1e-06</data>
      <data key="v_max_width">1</data>
    </node>
    <node id="n27">
      <data key="v_name">merge_13</data>
      <data key="v_module">merge</data>
      <data key="v_workload">2</data>
      <data key="v_efficiency">exprtk: p == 1 ? 1 : p &lt;= W ? 1 - 0.3 * ((p * p) / (W * W)) : 1e-06</data>
      <data key="v_max_width">1</data>
    </node>
    <node id="n28">
      <data key="v_name">merge_14</data>
      <data key="v_module">merge</data>
      <data key="v_workload">2</data>
      <data key="v_efficiency">exprtk: p == 1 ? 1 : p &lt;= W ? 1 - 0.3 * ((p * p) / (W * W)) : 1e-06</data>
      <data key="v_max_width">1</data>
    </node>
    <node id="n29">
      <data key="v_name">merge_15</data>
      <data key="v_module">merge</data>
      <data key="v_workload">2</data>
      <data key="v_efficiency">exprtk: p == 1 ? 1 : p &lt;= W ? 1 - 0.3 * ((p * p) / (W * W)) : 1e-06</data>
      <data key="v_max_width">1</data>
    </node>
    <node id="n30">
      <data key="v_name">root</data>
      <data key="v_module">root</data>
      <data key="v_workload">16</data>
      <data key="v_efficiency">exprtk: p == 1 ? 1 : p &lt;= W ? 1 - 0.3 * ((p * p) / (W * W)) : 1e-06</data>
      <data key="v_max_width">1</data>
    </node>
    <edge source="n0" target="n22">
      <data key="e_producer_name">left</data>
      <data key="e_consumer_name">output</data>
      <data key="e_type">int</data>
      <data key="e_consume">1</data>
      <data key="e_produce">1</data>
    </edge>
    <edge source="n1" target="n22">
      <data key="e_producer_name">right</data>
      <data key="e_consumer_name">output</data>
      <data key="e_type">int</data>
      <data key="e_consume">1</data>
      <data key="e_produce">1</data>
    </edge>
    <edge source="n2" target="n23">
      <data key="e_producer_name">left</data>
      <data key="e_consumer_name">output</data>
      <data key="e_type">int</data>
      <data key="e_consume">1</data>
      <data key="e_produce">1</data>
    </edge>
    <edge source="n3" target="n23">
      <data key="e_producer_name">right</data>
      <data key="e_consumer_name">output</data>
      <data key="e_type">int</data>
      <data key="e_consume">1</data>
      <data key="e_produce">1</data>
    </edge>
    <edge source="n4" target="n24">
      <data key="e_producer_name">left</data>
      <data key="e_consumer_name">output</data>
      <data key="e_type">int</data>
      <data key="e_consume">1</data>
      <data key="e_produce">1</data>
    </edge>
    <edge source="n5" target="n24">
      <data key="e_producer_name">right</data>
      <data key="e_consumer_name">output</data>
      <data key="e_type">int</data>
      <data key="e_consume">1</data>
      <data key="e_produce">1</data>
    </edge>
    <edge source="n6" target="n25">
      <data key="e_producer_name">left</data>
      <data key="e_consumer_name">output</data>
      <data key="e_type">int</data>
      <data key="e_consume">1</data>
      <data key="e_produce">1</data>
    </edge>
    <edge source="n7" target="n25">
      <data key="e_producer_name">right</data>
      <data key="e_consumer_name">output</data>
      <data key="e_type">int</data>
      <data key="e_consume">1</data>
      <data key="e_produce">1</data>
    </edge>
    <edge source="n8" target="n26">
      <data key="e_producer_name">left</data>
      <data key="e_consumer_name">output</data>
      <data key="e_type">int</data>
      <data key="e_consume">1</data>
      <data key="e_produce">1</data>
    </edge>
    <edge source="n9" target="n26">
      <data key="e_producer_name">right</data>
      <data key="e_consumer_name">output</data>
      <data key="e_type">int</data>
      <data key="e_consume">1</data>
      <data key="e_produce">1</data>
    </edge>
    <edge source="n10" target="n27">
      <data key="e_producer_name">left</data>
      <data key="e_consumer_name">output</data>
      <data key="e_type">int</data>
      <data key="e_consume">1</data>
      <data key="e_produce">1</data>
    </edge>
    <edge source="n11" target="n27">
      <data key="e_producer_name">right</data>
      <data key="e_consumer_name">output</data>
      <data key="e_type">int</data>
      <data key="e_consume">1</data>
      <data key="e_produce">1</data>
    </edge>
    <edge source="n12" target="n28">
      <data key="e_producer_name">left</data>
      <data key="e_consumer_name">output</data>
      <data key="e_type">int</data>
      <data key="e_consume">1</data>
      <data key="e_produce">1</data>
    </edge>
    <edge source="n13" target="n28">
      <data key="e_producer_name">right</data>
      <data key="e_consumer_name">output</data>
      <data key="e_type">int</data>
      <data key="e_consume">1</data>
      <data key="e_produce">1</data>
    </edge>
    <edge source="n14" target="n29">
      <data key="e_producer_name">left</data>
      <data key="e_consumer_name">output</data>
      <data key="e_type">int</data>
      <data key="e_consume">1</data>
      <data key="e_produce">1</data>
    </edge>
    <edge source="n15" target="n29">
      <data key="e_producer_name">right</data>
      <data key="e_consumer_name">output</data>
      <data key="e_type">int</data>
      <data key="e_consume">1</data>
      <data key="e_produce">1</data>
    </edge>
    <edge source="n16" target="n30">
      <data key="e_producer_name">left</data>
      <data key="e_consumer_name">output</data>
      <data key="e_type">int</data>
      <data key="e_consume">8</data>
      <data key="e_produce">8</data>
    </edge>
    <edge source="n17" target="n30">
      <data key="e_producer_name">right</data>
      <data key="e_consumer_name">output</data>
      <data key="e_type">int</data>
      <data key="e_consume">8</data>
      <data key="e_produce">8</data>
    </edge>
    <edge source="n18" target="n16">
      <data key="e_producer_name">left</data>
      <data key="e_consumer_name">output</data>
      <data key="e_type">int</data>
      <data key="e_consume">4</data>
      <data key="e_produce">4</data>
    </edge>
    <edge source="n19" target="n16">
      <data key="e_producer_name">right</data>
      <data key="e_consumer_name">output</data>
      <data key="e_type">int</data>
      <data key="e_consume">4</data>
      <data key="e_produce">4</data>
    </edge>
    <edge source="n20" target="n17">
      <data key="e_producer_name">left</data>
      <data key="e_consumer_name">output</data>
      <data key="e_type">int</data>
      <data key="e_consume">4</data>
      <data key="e_produce">4</data>
    </edge>
    <edge source="n21" target="n17">
      <data key="e_producer_name">right</data>
      <data key="e_consumer_name">output</data>
      <data key="e_type">int</data>
      <data key="e_consume">4</data>
      <data key="e_produce">4</data>
    </edge>
    <edge source="n22" target="n18">
      <data key="e_producer_name">left</data>
      <data key="e_consumer_name">output</data>
      <data key="e_type">int</data>
      <data key="e_consume">2</data>
      <data key="e_produce">2</data>
    </edge>
    <edge source="n23" target="n18">
      <data key="e_producer_name">right</data>
      <data key="e_consumer_name">output</data>
      <data key="e_type">int</data>
      <data key="e_consume">2</data>
      <data key="e_produce">2</data>
    </edge>
    <edge source="n24" target="n19">
      <data key="e_producer_name">left</data>
      <data key="e_consumer_name">output</data>
      <data key="e_type">int</data>
      <data key="e_consume">2</data>
      <data key="e_produce">2</data>
    </edge>
    <edge source="n25" target="n19">
      <data key="e_producer_name">right</data>
      <data key="e_consumer_name">output</data>
      <data key="e_type">int</data>
      <data key="e_consume">2</data>
      <data key="e_produce">2</data>
    </edge>
    <edge source="n26" target="n20">
      <data key="e_producer_name">left</data>
      <data key="e_consumer_name">output</data>
      <data key="e_type">int</data>
      <data key="e_consume">2</data>
      <data key="e_produce">2</data>
    </edge>
    <edge source="n27" target="n20">
      <data key="e_producer_name">right</data>
      <data key="e_consumer_name">output</data>
      <data key="e_type">int</data>
      <data key="e_consume">2</data>
      <data key="e_produce">2</data>
    </edge>
    <edge source="n28" target="n21">
      <data key="e_producer_name">left</data>
      <data key="e_consumer_name">output</data>
      <data key="e_type">int</data>
      <data key="e_consume">2</data>
      <data key="e_produce">2</data>
    </edge>
    <edge source="n29" target="n21">
      <data key="e_producer_name">right</data>
      <data key="e_consumer_name">output</data>
      <data key="e_type">int</data>
      <data key="e_consume">2</data>
      <data key="e_produce">2</data>
    </edge>
  </graph>
</graphml>
